<?xml version="1.0" encoding="UTF-8" standalone="no"?>
<svg
   xmlns:dc="http://purl.org/dc/elements/1.1/"
   xmlns:cc="http://creativecommons.org/ns#"
   xmlns:rdf="http://www.w3.org/1999/02/22-rdf-syntax-ns#"
   xmlns:svg="http://www.w3.org/2000/svg"
   xmlns="http://www.w3.org/2000/svg"
   width="19"
   height="19"
   viewBox="0 0 19 19"
   id="svg4434"
   version="1.1">
  <defs
     id="defs4436" />
  <metadata
     id="metadata4439">
    <rdf:RDF>
      <cc:Work
         rdf:about="">
        <dc:format>image/svg+xml</dc:format>
        <dc:type
           rdf:resource="http://purl.org/dc/dcmitype/StillImage" />
        <dc:title></dc:title>
      </cc:Work>
    </rdf:RDF>
  </metadata>
  <g
     id="layer1"
     transform="translate(0,-1033.3622)">
    <g
       transform="matrix(1.25,0,0,-1.25,-231.9675,1537.6566)"
       id="g5092">
      <g
         transform="translate(199.61,395.8355)"
         id="g4388">
        <path
           id="path4390"
           style="fill:#e3007e;fill-opacity:1;fill-rule:nonzero;stroke:none"
           d="m 0,0 c 0,-3.555 -2.882,-6.436 -6.436,-6.436 -3.555,0 -6.436,2.881 -6.436,6.436 0,3.555 2.881,6.436 6.436,6.436 C -2.882,6.436 0,3.555 0,0" />
      </g>
      <g
         transform="translate(199.61,395.8355)"
         id="g4392">
        <path
           id="path4394"
           style="fill:none;stroke:#ffffff;stroke-width:2;stroke-linecap:butt;stroke-linejoin:miter;stroke-miterlimit:10;stroke-dasharray:none;stroke-opacity:1"
           d="m 0,0 c 0,-3.555 -2.882,-6.436 -6.436,-6.436 -3.555,0 -6.436,2.881 -6.436,6.436 0,3.555 2.881,6.436 6.436,6.436 C -2.882,6.436 0,3.555 0,0 Z" />
      </g>
    </g>
  </g>
</svg>
