<?xml version="1.0" encoding="UTF-8" standalone="no"?>
<svg
   xmlns:dc="http://purl.org/dc/elements/1.1/"
   xmlns:cc="http://creativecommons.org/ns#"
   xmlns:rdf="http://www.w3.org/1999/02/22-rdf-syntax-ns#"
   xmlns:svg="http://www.w3.org/2000/svg"
   xmlns="http://www.w3.org/2000/svg"
   xmlns:sodipodi="http://sodipodi.sourceforge.net/DTD/sodipodi-0.dtd"
   xmlns:inkscape="http://www.inkscape.org/namespaces/inkscape"
   version="1.1"
   id="svg4322"
   viewBox="0 0 400 159"
   height="159"
   width="400"
   inkscape:version="0.91 r13725"
   sodipodi:docname="aroundyou.svg">
  <sodipodi:namedview
     pagecolor="#ffffff"
     bordercolor="#666666"
     borderopacity="1"
     objecttolerance="10"
     gridtolerance="10"
     guidetolerance="10"
     inkscape:pageopacity="0"
     inkscape:pageshadow="2"
     inkscape:window-width="1529"
     inkscape:window-height="829"
     id="namedview4576"
     showgrid="false"
     inkscape:zoom="1.5214162"
     inkscape:cx="210.50838"
     inkscape:cy="51.295483"
     inkscape:window-x="1974"
     inkscape:window-y="65"
     inkscape:window-maximized="0"
     inkscape:current-layer="svg4322" />
  <defs
     id="defs4324">
    <clipPath
       id="clipPath38"
       clipPathUnits="userSpaceOnUse">
      <path
         id="path40"
         d="m 0,383.25 320,0 L 320,511 0,511 0,383.25 Z M 10,501 l 300,0 0,-107.751 -300,0 L 10,501 Z" />
    </clipPath>
    <linearGradient
       id="linearGradient46"
       spreadMethod="pad"
       gradientTransform="matrix(320.324,-126.933,-126.933,-320.324,-0.161821,510.592)"
       gradientUnits="userSpaceOnUse"
       y2="0"
       x2="1"
       y1="0"
       x1="0">
      <stop
         id="stop48"
         offset="0"
         style="stop-opacity:1;stop-color:#312782" />
      <stop
         id="stop50"
         offset="1"
         style="stop-opacity:1;stop-color:#1d70b7" />
    </linearGradient>
    <linearGradient
       id="linearGradient126"
       spreadMethod="pad"
       gradientTransform="matrix(250.246,0,0,-250.246,34.931,443.71)"
       gradientUnits="userSpaceOnUse"
       y2="0"
       x2="1"
       y1="0"
       x1="0">
      <stop
         id="stop128"
         offset="0"
         style="stop-opacity:1;stop-color:#312782" />
      <stop
         id="stop130"
         offset="1"
         style="stop-opacity:1;stop-color:#1d70b7" />
    </linearGradient>
    <linearGradient
       x1="0"
       y1="0"
       x2="1"
       y2="0"
       gradientUnits="userSpaceOnUse"
       gradientTransform="matrix(320,0,0,-320,7.3e-6,63.875)"
       spreadMethod="pad"
       id="linearGradient4318">
      <stop
         style="stop-opacity:1;stop-color:#00a099"
         offset="0"
         id="stop4320" />
      <stop
         style="stop-opacity:1;stop-color:#fcea0d"
         offset="1"
         id="stop4322" />
    </linearGradient>
    <linearGradient
       x1="0"
       y1="0"
       x2="1"
       y2="0"
       gradientUnits="userSpaceOnUse"
       gradientTransform="matrix(192.12891,0,0,-192.12891,63.120918,61.865723)"
       spreadMethod="pad"
       id="linearGradient4338">
      <stop
         style="stop-opacity:1;stop-color:#00a099"
         offset="0"
         id="stop4340" />
      <stop
         style="stop-opacity:1;stop-color:#fcea0d"
         offset="1"
         id="stop4342" />
    </linearGradient>
  </defs>
  <metadata
     id="metadata4327">
    <rdf:RDF>
      <cc:Work
         rdf:about="">
        <dc:format>image/svg+xml</dc:format>
        <dc:type
           rdf:resource="http://purl.org/dc/dcmitype/StillImage" />
        <dc:title></dc:title>
      </cc:Work>
    </rdf:RDF>
  </metadata>
  <path
     style="opacity:1;fill:#ffffff;fill-opacity:1;fill-rule:nonzero;stroke:none;stroke-width:0.1;stroke-linecap:square;stroke-linejoin:bevel;stroke-miterlimit:4;stroke-dasharray:none;stroke-opacity:1"
     d="m 12.49023,12.113281 0,134.773439 375.01954,0 0,-134.773439 -375.01954,0 z m 204.9082,49.28125 3.36134,0 0,28.42773 -3.36134,0 0,-3.06836 c -0.70645,1.21804 -1.60149,2.12386 -2.68554,2.7207 -1.07186,0.58466 -2.36268,0.87695 -3.87305,0.87695 -2.47261,0 -4.48778,-0.98576 -6.04687,-2.95897 -1.5469,-1.97323 -2.32031,-4.5676 -2.32031,-7.7832 0,-3.21562 0.77341,-5.80999 2.32031,-7.78322 1.55909,-1.97321 3.57426,-2.95897 6.04687,-2.95897 1.51037,0 2.80119,0.29769 3.87305,0.89452 1.08405,0.58465 1.97909,1.48509 2.68554,2.70313 l 0,-11.07031 z m -105.7871,7.47266 c 2.95981,0 5.17116,0.76605 6.6328,2.30077 1.46165,1.53473 2.19336,3.8623 2.19336,6.98048 l 0,11.67382 -3.36327,0 0,-3.10547 c -0.76737,1.2424 -1.72224,2.16097 -2.86719,2.75781 -1.14495,0.58466 -2.5466,0.87695 -4.20313,0.87695 -2.09502,0 -3.76346,-0.58459 -5.00586,-1.7539 -1.23021,-1.1815 -1.8457,-2.75726 -1.8457,-4.73046 0,-2.3021 0.76801,-4.03773 2.30274,-5.20704 1.5469,-1.16931 3.84898,-1.75391 6.90625,-1.75391 l 4.71289,0 0,-0.33008 c 0,-1.5469 -0.51005,-2.73962 -1.5332,-3.58007 -1.01098,-0.85263 -2.43617,-1.2793 -4.27539,-1.2793 -1.16932,0 -2.30957,0.13977 -3.41798,0.41992 -1.10841,0.28015 -2.17412,0.70143 -3.19726,1.26173 l 0,-3.10743 c 1.23021,-0.47503 2.42489,-0.82717 3.58204,-1.0586 1.15712,-0.2436 2.28266,-0.36522 3.3789,-0.36522 z m 25.4121,0 c 0.23144,0 0.48549,0.0181 0.76564,0.0546 0.28014,0.0244 0.59254,0.066 0.93359,0.12695 l 0.0176,3.45311 c -0.37759,-0.21924 -0.79151,-0.37715 -1.24219,-0.4746 -0.43848,-0.10962 -0.92695,-0.16406 -1.46288,-0.16406 -1.90013,0 -3.36163,0.62089 -4.38477,1.86327 -1.01096,1.23023 -1.51562,3.002139 -1.51562,5.316419 l 0,10.779301 -3.38086,0 0,-20.462891 3.38086,0 0,3.179671 c 0.70646,-1.24238 1.62504,-2.16292 2.75781,-2.75976 1.13276,-0.60901 2.51088,-0.9121 4.13085,-0.9121 z m 11.45314,0 c 2.92327,0 5.21996,0.94946 6.88866,2.8496 1.66871,1.90014 2.50195,4.5308 2.50195,7.89259 0,3.34958 -0.83324,5.98026 -2.50195,7.89256 -1.6687,1.90015 -3.96539,2.84961 -6.88866,2.84961 -2.93546,0 -5.23755,-0.94946 -6.90625,-2.84961 -1.65654,-1.9123 -2.48439,-4.54298 -2.48439,-7.89256 0,-3.36179 0.82785,-5.99245 2.48439,-7.89259 1.6687,-1.90014 3.97079,-2.8496 6.90625,-2.8496 z m 44.81836,0 c 2.3508,0 4.12813,0.72975 5.33398,2.1914 1.20585,1.44945 1.80858,3.58822 1.80858,6.41406 l 0,12.34961 -3.36131,0 0,-12.24023 c 0,-1.93668 -0.37765,-3.38737 -1.13282,-4.34962 -0.75518,-0.96223 -1.88808,-1.44336 -3.39843,-1.44336 -1.81487,0 -3.24546,0.5792 -4.29297,1.73634 -1.04752,1.15712 -1.57228,2.73485 -1.57228,4.73241 l 0,11.56446 -3.3789,0 0,-20.46288 3.3789,0 0,3.17967 c 0.8039,-1.23021 1.74799,-2.15075 2.83204,-2.75976 1.09622,-0.60901 2.35811,-0.9121 3.78321,-0.9121 z m 72.20311,0 c 2.92329,0 5.21997,0.94946 6.88868,2.8496 1.66871,1.90014 2.50196,4.5308 2.50196,7.89259 0,3.34958 -0.83325,5.98026 -2.50196,7.89256 -1.66871,1.90015 -3.96539,2.84961 -6.88868,2.84961 -2.93546,0 -5.23753,-0.94946 -6.90625,-2.84961 -1.65651,-1.9123 -2.48436,-4.54298 -2.48436,-7.89256 0,-3.36179 0.82785,-5.99245 2.48436,-7.89259 1.66872,-1.90014 3.97079,-2.8496 6.90625,-2.8496 z m -102.80858,0.49219 3.36132,0 0,12.25976 c 0,1.93666 0.37764,3.39275 1.13281,4.36719 0.75519,0.96223 1.88808,1.44336 3.39844,1.44336 1.81488,0 3.24546,-0.5792 4.29296,-1.73634 1.05969,-1.15712 1.58985,-2.73485 1.58985,-4.73241 l 0,-11.60156 3.36134,0 0,20.46288 -3.36134,0 0,-3.14257 c -0.81607,1.24239 -1.76556,2.16831 -2.84961,2.77734 -1.07186,0.596829 -2.32099,0.89452 -3.7461,0.89452 -2.3508,0 -4.13548,-0.72976 -5.3535,-2.191401 -1.21804,-1.46164 -1.82617,-3.59845 -1.82617,-6.412109 l 0,-12.388661 z m 72.84569,0 3.56251,0 6.39452,16.00585 6.39454,-16.00585 3.5625,0 -8.98829,22.36327 c -0.95005,2.43606 -1.876,4.02654 -2.77734,4.76954 -0.90135,0.743 -2.10682,1.11327 -3.61718,1.11327 l -2.68555,0 0,-2.8125 1.97266,0 c 0.9257,0 1.64466,-0.21971 2.15625,-0.6582 0.51156,-0.4385 1.07801,-1.47331 1.69921,-3.10547 l 0.60156,-1.53515 -8.27538,-20.13476 z m 44.17383,0 3.36329,0 0,12.25976 c 0,1.93666 0.37762,3.39275 1.13281,4.36719 0.75518,0.96223 1.88611,1.44336 3.39649,1.44336 1.81486,0 3.24741,-0.5792 4.29491,-1.73634 1.0597,-1.15712 1.58985,-2.73485 1.58985,-4.73241 l 0,-11.60156 3.36133,0 0,20.46288 -3.36133,0 0,-3.14257 c -0.81609,1.24239 -1.76751,2.16831 -2.85156,2.77734 -1.07188,0.596829 -2.31904,0.89452 -3.74414,0.89452 -2.35081,0 -4.13549,-0.72976 -5.35352,-2.191401 -1.21803,-1.46164 -1.82813,-3.59845 -1.82813,-6.412109 l 0,-12.388661 z m -68.04687,2.32031 c -1.77833,0 -3.17998,0.70621 -4.20313,2.11914 -1.01096,1.40073 -1.51562,3.33793 -1.51562,5.81055 0,2.4726 0.50466,4.4152 1.51562,5.82811 1.02315,1.40075 2.4248,2.10156 4.20313,2.10156 1.77832,0 3.17802,-0.70081 4.20117,-2.10156 1.02315,-1.41291 1.53515,-3.35551 1.53515,-5.82811 0,-2.47262 -0.512,-4.40982 -1.53515,-5.81055 -1.02315,-1.41293 -2.42285,-2.11914 -4.20117,-2.11914 z m -63.18554,0.0371 c -1.80269,0 -3.22789,0.70622 -4.27539,2.11915 -1.04751,1.40074 -1.57032,3.32519 -1.57032,5.77344 0,2.44823 0.51741,4.37808 1.55273,5.79101 1.04752,1.40074 2.4781,2.10155 4.29298,2.10155 1.79051,0 3.2103,-0.70621 4.25781,-2.11914 1.0475,-1.41291 1.5703,-3.33736 1.5703,-5.77342 0,-2.42389 -0.5228,-4.34295 -1.5703,-5.75587 -1.04751,-1.4251 -2.4673,-2.13672 -4.25781,-2.13672 z m 117.02147,0 c -1.80269,0 -3.22787,0.70622 -4.27539,2.11915 -1.04751,1.40074 -1.57031,3.32519 -1.57031,5.77344 0,2.44823 0.51742,4.37808 1.55274,5.79101 1.0475,1.40074 2.4781,2.10155 4.29296,2.10155 1.79051,0 3.21031,-0.70621 4.25781,-2.11914 1.04752,-1.41291 1.57033,-3.33736 1.57033,-5.77342 0,-2.42389 -0.52281,-4.34295 -1.57033,-5.75587 -1.0475,-1.4251 -2.4673,-2.13672 -4.25781,-2.13672 z m -151.76757,7.82031 c -2.71622,0 -4.59703,0.31043 -5.64454,0.93163 -1.0475,0.6212 -1.57225,1.67955 -1.57225,3.17774 0,1.19368 0.39037,2.14511 1.16991,2.85156 0.79172,0.69429 1.86282,1.04102 3.21484,1.04102 1.8636,0 3.35597,-0.65718 4.47656,-1.97265 1.13279,-1.32767 1.69923,-3.08879 1.69923,-5.28125 l 0,-0.74805 -3.34375,0 z"
     id="rect4338"
     inkscape:connector-curvature="0" />
  <g
     transform="matrix(1.25,0,0,-1.25,1.018125,156.83188)"
     id="g4326">
    <g
       id="g4328">
      <g
         id="g4334">
        <g
           id="g4336" />
      </g>
    </g>
  </g>
</svg>
