<?xml version="1.0" encoding="UTF-8" standalone="no"?>
<svg
   xmlns:dc="http://purl.org/dc/elements/1.1/"
   xmlns:cc="http://creativecommons.org/ns#"
   xmlns:rdf="http://www.w3.org/1999/02/22-rdf-syntax-ns#"
   xmlns:svg="http://www.w3.org/2000/svg"
   xmlns="http://www.w3.org/2000/svg"
   version="1.1"
   id="svg4498"
   viewBox="0 0 32 32.000001"
   height="32"
   width="32">
  <defs
     id="defs4500" />
  <metadata
     id="metadata4503">
    <rdf:RDF>
      <cc:Work
         rdf:about="">
        <dc:format>image/svg+xml</dc:format>
        <dc:type
           rdf:resource="http://purl.org/dc/dcmitype/StillImage" />
        <dc:title></dc:title>
      </cc:Work>
    </rdf:RDF>
  </metadata>
  <g
     transform="translate(0,-1020.3622)"
     id="layer1">
    <g
       transform="translate(0.04692101,0.08713321)"
       id="g5072">
      <g
         id="g4418"
         transform="matrix(1.25,0,0,-1.25,16.232243,1021.044)">
        <path
           d="M 0,0 -12.231,-12.217 0,-24.369"
           style="fill:none;stroke:#333333;stroke-width:0.75099999;stroke-linecap:butt;stroke-linejoin:miter;stroke-miterlimit:10;stroke-dasharray:none;stroke-opacity:1"
           id="path4420" />
      </g>
      <g
         id="g4422"
         transform="matrix(1.25,0,0,-1.25,31.627118,1036.2749)">
        <path
           d="M 0,0 -24.547,-0.032"
           style="fill:none;stroke:#333333;stroke-width:0.75099999;stroke-linecap:butt;stroke-linejoin:miter;stroke-miterlimit:10;stroke-dasharray:none;stroke-opacity:1"
           id="path4424" />
      </g>
    </g>
  </g>
</svg>
