<?xml version="1.0" encoding="UTF-8" standalone="no"?>
<!-- Created with Inkscape (http://www.inkscape.org/) -->

<svg
   xmlns:dc="http://purl.org/dc/elements/1.1/"
   xmlns:cc="http://creativecommons.org/ns#"
   xmlns:rdf="http://www.w3.org/1999/02/22-rdf-syntax-ns#"
   xmlns:svg="http://www.w3.org/2000/svg"
   xmlns="http://www.w3.org/2000/svg"
   xmlns:sodipodi="http://sodipodi.sourceforge.net/DTD/sodipodi-0.dtd"
   xmlns:inkscape="http://www.inkscape.org/namespaces/inkscape"
   width="400"
   height="159"
   viewBox="0 0 400 159"
   id="svg4322"
   version="1.1"
   inkscape:version="0.91 r13725"
   sodipodi:docname="mydetails.svg">
  <defs
     id="defs4324">
    <clipPath
       clipPathUnits="userSpaceOnUse"
       id="clipPath38">
      <path
         d="m 0,383.25 320,0 L 320,511 0,511 0,383.25 Z M 10,501 l 300,0 0,-107.751 -300,0 L 10,501 Z"
         id="path40"
         inkscape:connector-curvature="0" />
    </clipPath>
    <linearGradient
       x1="0"
       y1="0"
       x2="1"
       y2="0"
       gradientUnits="userSpaceOnUse"
       gradientTransform="matrix(320.324,-126.933,-126.933,-320.324,-0.161821,510.592)"
       spreadMethod="pad"
       id="linearGradient46">
      <stop
         style="stop-opacity:1;stop-color:#312782"
         offset="0"
         id="stop48" />
      <stop
         style="stop-opacity:1;stop-color:#1d70b7"
         offset="1"
         id="stop50" />
    </linearGradient>
    <linearGradient
       x1="0"
       y1="0"
       x2="1"
       y2="0"
       gradientUnits="userSpaceOnUse"
       gradientTransform="matrix(250.246,0,0,-250.246,34.931,443.71)"
       spreadMethod="pad"
       id="linearGradient126">
      <stop
         style="stop-opacity:1;stop-color:#312782"
         offset="0"
         id="stop128" />
      <stop
         style="stop-opacity:1;stop-color:#1d70b7"
         offset="1"
         id="stop130" />
    </linearGradient>
    <clipPath
       clipPathUnits="userSpaceOnUse"
       id="clipPath58">
      <path
         d="m 0,255.5 320,0 0,127.75 -320,0 0,-127.75 z m 10,117.75 300,0 0,-107.75 -300,0 0,107.75 z"
         id="path60"
         inkscape:connector-curvature="0" />
    </clipPath>
    <linearGradient
       x1="0"
       y1="0"
       x2="1"
       y2="0"
       gradientUnits="userSpaceOnUse"
       gradientTransform="matrix(320.597,-126.235,-126.235,-320.597,-0.298278,382.492)"
       spreadMethod="pad"
       id="linearGradient66">
      <stop
         style="stop-opacity:1;stop-color:#e5007e"
         offset="0"
         id="stop68" />
      <stop
         style="stop-opacity:1;stop-color:#662482"
         offset="1"
         id="stop70" />
    </linearGradient>
    <linearGradient
       x1="0"
       y1="0"
       x2="1"
       y2="0"
       gradientUnits="userSpaceOnUse"
       gradientTransform="matrix(177.471,0,0,-177.471,72.2254,319.302)"
       spreadMethod="pad"
       id="linearGradient146">
      <stop
         style="stop-opacity:1;stop-color:#e5007e"
         offset="0"
         id="stop148" />
      <stop
         style="stop-opacity:1;stop-color:#662482"
         offset="1"
         id="stop150" />
    </linearGradient>
    <clipPath
       clipPathUnits="userSpaceOnUse"
       id="clipPath78">
      <path
         d="m 0,127.75 320,0 0,127.751 -320,0 0,-127.751 z m 10,117.75 300,0 0,-107.75 -300,0 0,107.75 z"
         id="path80"
         inkscape:connector-curvature="0" />
    </clipPath>
    <linearGradient
       x1="0"
       y1="0"
       x2="1"
       y2="0"
       gradientUnits="userSpaceOnUse"
       gradientTransform="matrix(320.466,-126.571,-126.571,-320.466,-0.232911,254.91)"
       spreadMethod="pad"
       id="linearGradient86">
      <stop
         style="stop-opacity:1;stop-color:#006633"
         offset="0"
         id="stop88" />
      <stop
         style="stop-opacity:1;stop-color:#93c01f"
         offset="1"
         id="stop90" />
    </linearGradient>
    <linearGradient
       x1="0"
       y1="0"
       x2="1"
       y2="0"
       gradientUnits="userSpaceOnUse"
       gradientTransform="matrix(148.825,0,0,-148.825,86.1282,189.248)"
       spreadMethod="pad"
       id="linearGradient166">
      <stop
         style="stop-opacity:1;stop-color:#006633"
         offset="0"
         id="stop168" />
      <stop
         style="stop-opacity:1;stop-color:#93c01f"
         offset="1"
         id="stop170" />
    </linearGradient>
    <clipPath
       clipPathUnits="userSpaceOnUse"
       id="clipPath98">
      <path
         d="m 0,0 320,0 0,127.75 -320,0 L 0,0 Z m 10,117.75 300,0 L 310,10 10,10 10,117.75 Z"
         id="path100"
         inkscape:connector-curvature="0" />
    </clipPath>
    <linearGradient
       x1="0"
       y1="0"
       x2="1"
       y2="0"
       gradientUnits="userSpaceOnUse"
       gradientTransform="matrix(320,0,0,-320,7.3e-6,63.875)"
       spreadMethod="pad"
       id="linearGradient106">
      <stop
         style="stop-opacity:1;stop-color:#f29100"
         offset="0"
         id="stop108" />
      <stop
         style="stop-opacity:1;stop-color:#bd1622"
         offset="1"
         id="stop110" />
    </linearGradient>
    <linearGradient
       x1="0"
       y1="0"
       x2="1"
       y2="0"
       gradientUnits="userSpaceOnUse"
       gradientTransform="matrix(135.277,0,0,-135.277,92.9022,61.9282)"
       spreadMethod="pad"
       id="linearGradient186">
      <stop
         style="stop-opacity:1;stop-color:#f29100"
         offset="0"
         id="stop188" />
      <stop
         style="stop-opacity:1;stop-color:#bd1622"
         offset="1"
         id="stop190" />
    </linearGradient>
  </defs>
  <sodipodi:namedview
     id="base"
     pagecolor="#ffffff"
     bordercolor="#666666"
     borderopacity="1.0"
     inkscape:pageopacity="0.0"
     inkscape:pageshadow="2"
     inkscape:zoom="1.1407621"
     inkscape:cx="151.82955"
     inkscape:cy="51.953431"
     inkscape:document-units="px"
     inkscape:current-layer="layer1"
     showgrid="false"
     units="px"
     showguides="false"
     inkscape:window-width="1223"
     inkscape:window-height="733"
     inkscape:window-x="389"
     inkscape:window-y="178"
     inkscape:window-maximized="0" />
  <metadata
     id="metadata4327">
    <rdf:RDF>
      <cc:Work
         rdf:about="">
        <dc:format>image/svg+xml</dc:format>
        <dc:type
           rdf:resource="http://purl.org/dc/dcmitype/StillImage" />
        <dc:title></dc:title>
      </cc:Work>
    </rdf:RDF>
  </metadata>
  <g
     inkscape:label="Layer 1"
     inkscape:groupmode="layer"
     id="layer1"
     transform="translate(0,-893.36216)">
    <g
       transform="matrix(1.25,0,0,-1.25,-0.13361494,1532.3738)"
       id="g114">
      <g
         id="g116">
        <g
           id="g122">
          <g
             id="g124" />
        </g>
      </g>
    </g>
    <g
       transform="matrix(1.25,0,0,-1.25,-1.20125,1371.989)"
       id="g134">
      <g
         id="g136">
        <g
           id="g142">
          <g
             id="g144" />
        </g>
      </g>
    </g>
    <g
       transform="matrix(1.25,0,0,-1.25,-0.675625,1209.4209)"
       id="g154">
      <g
         id="g156">
        <g
           id="g162">
          <g
             id="g164" />
        </g>
      </g>
    </g>
    <path
       style="opacity:1;fill:#ffffff;fill-opacity:1;stroke:none;stroke-width:1.09899998;stroke-miterlimit:4;stroke-dasharray:none;stroke-opacity:1"
       d="m 12.49414,907.05092 0,135.12888 375.01172,0 0,-135.12888 -375.01172,0 z m 177.67188,47.0957 4.16992,0 0,31.15821 -4.16992,0 0,-1.88086 c -1.635,1.6 -3.48579,2.39843 -5.55079,2.39843 -2.46,0 -4.50125,-0.8971 -6.125,-2.69335 -1.6125,-1.8325 -2.41796,-4.11954 -2.41796,-6.86329 0,-2.68 0.80546,-4.91859 2.41796,-6.71484 1.59875,-1.8075 3.6075,-2.71289 6.03125,-2.71289 2.10375,0 3.98454,0.86273 5.64454,2.58398 l 0,-15.27539 z m 73.36914,0.002 4.15039,0 0,31.15625 -4.15039,0 0,-31.15625 z m -7.3418,3.04101 c 0.75,0 1.38922,0.26547 1.91797,0.79297 0.52875,0.51625 0.79297,1.15109 0.79297,1.90234 0,0.75125 -0.26422,1.39118 -0.79297,1.91993 -0.51625,0.5275 -1.15039,0.79101 -1.90039,0.79101 -0.75125,0 -1.38922,-0.26351 -1.91797,-0.79101 -0.52875,-0.52875 -0.79297,-1.175 -0.79297,-1.9375 0,-0.7275 0.26422,-1.35477 0.79297,-1.88477 0.52875,-0.5275 1.16289,-0.79297 1.90039,-0.79297 z m -35.25586,3.56055 4.15234,0 0,6.58594 3.22852,0 0,3.875 -3.22852,0 0,14.09375 -4.15234,0 0,-14.09375 -1.77148,0 0,-3.875 1.77148,0 0,-6.58594 z m -97.01758,6.08789 c 2.0275,0 3.63445,0.8857 4.81446,2.6582 1.30375,-1.7725 3.06867,-2.6582 5.29492,-2.6582 4.04625,0 6.07031,2.45383 6.07031,7.36133 l 0,11.10547 -4.16992,0 0,-9.97852 c 0,-1.72125 -0.20821,-2.94055 -0.62696,-3.6543 -0.43125,-0.72375 -1.13859,-1.08984 -2.12109,-1.08984 -1.145,0 -1.97945,0.43172 -2.50195,1.29297 -0.52375,0.86125 -0.78321,2.24609 -0.78321,4.15234 l 0,9.27735 -4.16796,0 0,-9.92383 c 0,-3.19875 -0.92383,-4.79883 -2.76758,-4.79883 -1.16875,0 -2.01969,0.43875 -2.55469,1.3125 -0.535,0.87375 -0.80273,2.25156 -0.80273,4.13281 l 0,9.27735 -4.15235,0 0,-17.96875 4.15235,0 0,1.66211 c 0.8,-0.835 1.48187,-1.40227 2.04687,-1.69727 0.6025,-0.30875 1.35828,-0.46289 2.26953,-0.46289 z m 83.47852,0 c 2.6425,0 4.73398,0.8443 6.27148,2.5293 1.52375,1.6725 2.28906,3.99062 2.28906,6.95312 l -0.0215,0.97656 -12.875,0 c 0.10875,1.47625 0.59,2.65289 1.4375,3.52539 0.85,0.86125 1.94008,1.29102 3.26758,1.29102 1.0325,0 1.88625,-0.24508 2.5625,-0.73633 0.66375,-0.4925 1.42273,-1.40297 2.27148,-2.73047 l 3.50196,1.95703 c -0.53875,0.92125 -1.11165,1.70969 -1.7129,2.36719 -0.60249,0.66 -1.2507,1.2 -1.93945,1.625 -0.68875,0.42375 -1.43172,0.73289 -2.23047,0.93164 -0.8,0.19625 -1.66851,0.29492 -2.60351,0.29492 -2.68125,0 -4.82938,-0.86273 -6.45313,-2.58398 -1.62375,-1.73375 -2.4375,-4.03344 -2.4375,-6.89844 0,-2.84125 0.78563,-5.14164 2.35938,-6.90039 1.5875,-1.73375 3.69125,-2.60156 6.3125,-2.60156 z m 31.6914,0 c 2.09125,0 3.96891,0.86273 5.62891,2.58398 l 0,-2.08593 4.16797,0 0,17.96875 -4.16797,0 0,-1.88086 c -1.71125,1.6 -3.55008,2.39843 -5.51758,2.39843 -2.485,0 -4.5364,-0.8971 -6.16015,-2.69335 -1.61125,-1.8325 -2.41797,-4.11954 -2.41797,-6.86329 0,-2.6925 0.80672,-4.93742 2.41797,-6.73242 1.61,-1.79625 3.62757,-2.69531 6.04882,-2.69531 z m 39.16797,0 c 2.3,0 4.00821,1.18875 5.12696,3.5625 l -3.42969,1.82422 c -0.5425,-1.09375 -1.21102,-1.64258 -2.00977,-1.64258 -0.3825,0 -0.70851,0.12711 -0.97851,0.38086 -0.27125,0.25 -0.40625,0.5743 -0.40625,0.9668 0,0.6875 0.79843,1.36867 2.39843,2.04492 2.2,0.94625 3.68157,1.81648 4.44532,2.61523 0.76375,0.79875 1.14453,1.87532 1.14453,3.22657 0,1.7325 -0.63992,3.18015 -1.91992,4.34765 -1.2425,1.10625 -2.7425,1.6582 -4.5,1.6582 -3.01375,0 -5.1486,-1.47015 -6.40235,-4.41015 l 3.54297,-1.64063 c 0.49125,0.86125 0.86625,1.40688 1.125,1.64063 0.50375,0.4675 1.10539,0.70117 1.80664,0.70117 1.4025,0 2.10352,-0.63922 2.10352,-1.91797 0,-0.7375 -0.54125,-1.4264 -1.625,-2.0664 -0.41875,-0.20875 -0.83321,-0.41118 -1.25196,-0.60743 -0.4175,-0.1975 -0.84343,-0.40062 -1.27343,-0.60937 -1.20625,-0.59125 -2.05563,-1.18024 -2.54688,-1.77149 -0.6275,-0.74875 -0.9414,-1.71523 -0.9414,-2.89648 0,-1.5625 0.53671,-2.85305 1.60546,-3.87305 1.095,-1.02 2.42508,-1.5332 3.98633,-1.5332 z m -135.94531,0.49805 4.81641,0 5.49609,10.33203 5.12891,-10.33203 4.68554,0 -14.31445,27.74804 -4.74219,0 7.00977,-13.11718 -8.08008,-14.63086 z m 111.81445,0 4.15039,0 0,17.96875 -4.15039,0 0,-17.96875 z m -68.8125,3.24609 c -1.42625,0 -2.61937,0.5425 -3.57812,1.625 -0.9475,1.095 -1.41992,2.44734 -1.41992,4.05859 0,1.7225 0.46031,3.12329 1.38281,4.20704 0.9475,1.095 2.13937,1.64062 3.57812,1.64062 1.5375,0 2.78032,-0.52719 3.72657,-1.58594 0.94625,-1.09375 1.41992,-2.48422 1.41992,-4.16797 0,-1.68625 -0.47367,-3.07492 -1.41992,-4.16992 -0.94625,-1.06875 -2.17571,-1.60742 -3.68946,-1.60742 z m 22.17383,0 c -0.5025,0 -0.97672,0.0774 -1.41797,0.23242 -0.445,0.1525 -0.84773,0.37531 -1.20898,0.66406 -0.36375,0.28875 -0.67289,0.63602 -0.93164,1.04102 -0.25875,0.4075 -0.45555,0.86922 -0.5918,1.38672 l 8.33984,0 c -0.5775,-2.21375 -1.97445,-3.32422 -4.18945,-3.32422 z m 32.37695,0 c -1.4275,0 -2.61937,0.5425 -3.57812,1.625 -0.9475,1.095 -1.41992,2.44734 -1.41992,4.05859 0,1.7225 0.46156,3.12329 1.38281,4.20704 0.9475,1.095 2.14133,1.64062 3.58008,1.64062 1.53625,0 2.77836,-0.52719 3.72461,-1.58594 0.9475,-1.09375 1.42187,-2.48422 1.42187,-4.16797 0,-1.68625 -0.47437,-3.07492 -1.42187,-4.16992 -0.94625,-1.06875 -2.17571,-1.60742 -3.68946,-1.60742 z"
       id="rect5030"
       inkscape:connector-curvature="0" />
    <g
       transform="matrix(1.25,0,0,-1.25,-0.675625,1050.2722)"
       id="g174">
      <g
         id="g176">
        <g
           id="g182">
          <g
             id="g184" />
        </g>
      </g>
    </g>
  </g>
</svg>
